…
#> 
#> Lambda GC:1.0466
#> Mean Chi^2:1.1359
#> Intercept: 0.8518(0.0099)
#> Ratio: -1.0906(0.0731)
#> Partitioning the heritability over the annotations
#> Analysis ended at 2022-06-28 10:23:28
#> Analysis took 9 minutes and 10.4758009910583 seconds
  est_enrichment(trait_names, gen_cov_stratified)
#> [1] "baseL2 is assumed to be the baseline annotation that includes all SNPs."
#> [1] "Running model for baseline annotation"
#> [1] "Confirming fixed model reproduces estimate from freely estimated model for baseline annotation."
#> [1] "Beginning estimation of enrichment for 97 functional annotations."
#> [1] "46 annotations were removed from the output because they were either continuous or flanking window annotatoins."
#> # A tibble: 51 × 11
#>    Annotation     lhs   op    rhs   Cov_Smooth Z_smooth Enrichment Enrichment_SE
#>    <chr>          <chr> <chr> <chr>      <dbl>    <dbl>      <dbl>         <dbl>
#>  1 Conserved_Mam… F     ~~    F              0        0      9.92         3.11  
#>  2 Conserved_Pri… F     ~~    F              0        0      9.45         3.36  
#>  3 H3K9ac_peaks_… F     ~~    F              0        0      4.97         1.91  
#>  4 MAFbin9L2      F     ~~    F              0        0      1.54         0.334 
#>  5 baseL2         F     ~~    F              0        0      1.00         0.0740
#>  6 Intron_UCSCL2  F     ~~    F              0        0      1.01         0.120 
#>  7 Transcr_Hoffm… F     ~~    F              0        0      1.22         0.261 
#>  8 SuperEnhancer… F     ~~    F              0        0      1.10         0.203 
#>  9 H3K4me1_Trynk… F     ~~    F              0        0      1.18         0.255 
#> 10 H3K27ac_Hnisz… F     ~~    F              0        0      0.920        0.159 
#> # … with 41 more rows, and 3 more variables: Enrichment_p_value <dbl>,
#> #   Error <dbl>, Warning <chr>
```
